{
    "app-id": "org.flatpak.Rust.Hello",
    "runtime": "org.freedesktop.Platform",
    "runtime-version": "21.08beta",
    "sdk": "org.freedesktop.Sdk",
    "sdk-extensions" : [
        "org.freedesktop.Sdk.Extension.rust-stable"
    ],
    "command" : "hello",
    "build-options" : {
        "append-path" : "/usr/lib/sdk/rust-stable/bin",
        "env" : {
            "RUST_BACKTRACE" : "1"
        }
    },
    "modules": [
        {
            "name": "hello",
            "buildsystem": "simple",
            "build-commands": [
                "cargo build",
                "cargo test",
                "install -D target/debug/hello /app/bin/hello"
            ],
            "sources": [
                {
                    "type": "dir",
                    "path": "cargo-hello/"
                }
            ]
        }
    ]
}
